2.720716768241125919e+03,0.000000000000000000e+00,7.871471042407288223e+02
0.000000000000000000e+00,2.606276766977053285e+03,3.874059920188098545e+02
0.000000000000000000e+00,0.000000000000000000e+00,1.000000000000000000e+00
